type rom_type is array (785 downto 0) of std_logic_vector(31 downto 0);
signal ROM : rom_type := (
  "01101110111111000001110011101110",    -- "HOLA"
  "01101110011111001001111000000000",    -- "HUE "
  "10110110111011100001111000000000",    -- "SAt "
  "00011100000011001011110000011110",    -- "LIGt"
  "10011110000010100000101010011100",    -- "ErrC"
  "00000010111100101111011011111100",    -- "-390"
  "00000010111100101111111011110110",    -- "-389"
  "00000010111100101111111011111110",    -- "-388"
  "00000010111100101111111011100000",    -- "-387"
  "00000010111100101111111010111110",    -- "-386"
  "00000010111100101111111010110110",    -- "-385"
  "00000010111100101111111010001000",    -- "-384"
  "00000010111100101111111011110010",    -- "-383"
  "00000010111100101111111011011010",    -- "-382"
  "00000010111100101111111001100000",    -- "-381"
  "00000010111100101111111011111100",    -- "-380"
  "00000010111100101110000011110110",    -- "-379"
  "00000010111100101110000011111110",    -- "-378"
  "00000010111100101110000011100000",    -- "-377"
  "00000010111100101110000010111110",    -- "-376"
  "00000010111100101110000010110110",    -- "-375"
  "00000010111100101110000010001000",    -- "-374"
  "00000010111100101110000011110010",    -- "-373"
  "00000010111100101110000011011010",    -- "-372"
  "00000010111100101110000001100000",    -- "-371"
  "00000010111100101110000011111100",    -- "-370"
  "00000010111100101011111011110110",    -- "-369"
  "00000010111100101011111011111110",    -- "-368"
  "00000010111100101011111011100000",    -- "-367"
  "00000010111100101011111010111110",    -- "-366"
  "00000010111100101011111010110110",    -- "-365"
  "00000010111100101011111010001000",    -- "-364"
  "00000010111100101011111011110010",    -- "-363"
  "00000010111100101011111011011010",    -- "-362"
  "00000010111100101011111001100000",    -- "-361"
  "00000010111100101011111011111100",    -- "-360"
  "00000010111100101011011011110110",    -- "-359"
  "00000010111100101011011011111110",    -- "-358"
  "00000010111100101011011011100000",    -- "-357"
  "00000010111100101011011010111110",    -- "-356"
  "00000010111100101011011010110110",    -- "-355"
  "00000010111100101011011010001000",    -- "-354"
  "00000010111100101011011011110010",    -- "-353"
  "00000010111100101011011011011010",    -- "-352"
  "00000010111100101011011001100000",    -- "-351"
  "00000010111100101011011011111100",    -- "-350"
  "00000010111100101000100011110110",    -- "-349"
  "00000010111100101000100011111110",    -- "-348"
  "00000010111100101000100011100000",    -- "-347"
  "00000010111100101000100010111110",    -- "-346"
  "00000010111100101000100010110110",    -- "-345"
  "00000010111100101000100010001000",    -- "-344"
  "00000010111100101000100011110010",    -- "-343"
  "00000010111100101000100011011010",    -- "-342"
  "00000010111100101000100001100000",    -- "-341"
  "00000010111100101000100011111100",    -- "-340"
  "00000010111100101111001011110110",    -- "-339"
  "00000010111100101111001011111110",    -- "-338"
  "00000010111100101111001011100000",    -- "-337"
  "00000010111100101111001010111110",    -- "-336"
  "00000010111100101111001010110110",    -- "-335"
  "00000010111100101111001010001000",    -- "-334"
  "00000010111100101111001011110010",    -- "-333"
  "00000010111100101111001011011010",    -- "-332"
  "00000010111100101111001001100000",    -- "-331"
  "00000010111100101111001011111100",    -- "-330"
  "00000010111100101101101011110110",    -- "-329"
  "00000010111100101101101011111110",    -- "-328"
  "00000010111100101101101011100000",    -- "-327"
  "00000010111100101101101010111110",    -- "-326"
  "00000010111100101101101010110110",    -- "-325"
  "00000010111100101101101010001000",    -- "-324"
  "00000010111100101101101011110010",    -- "-323"
  "00000010111100101101101011011010",    -- "-322"
  "00000010111100101101101001100000",    -- "-321"
  "00000010111100101101101011111100",    -- "-320"
  "00000010111100100110000011110110",    -- "-319"
  "00000010111100100110000011111110",    -- "-318"
  "00000010111100100110000011100000",    -- "-317"
  "00000010111100100110000010111110",    -- "-316"
  "00000010111100100110000010110110",    -- "-315"
  "00000010111100100110000010001000",    -- "-314"
  "00000010111100100110000011110010",    -- "-313"
  "00000010111100100110000011011010",    -- "-312"
  "00000010111100100110000001100000",    -- "-311"
  "00000010111100100110000011111100",    -- "-310"
  "00000010111100101111110011110110",    -- "-309"
  "00000010111100101111110011111110",    -- "-308"
  "00000010111100101111110011100000",    -- "-307"
  "00000010111100101111110010111110",    -- "-306"
  "00000010111100101111110010110110",    -- "-305"
  "00000010111100101111110010001000",    -- "-304"
  "00000010111100101111110011110010",    -- "-303"
  "00000010111100101111110011011010",    -- "-302"
  "00000010111100101111110001100000",    -- "-301"
  "00000010111100101111110011111100",    -- "-300"
  "00000010110110101111011011110110",    -- "-299"
  "00000010110110101111011011111110",    -- "-298"
  "00000010110110101111011011100000",    -- "-297"
  "00000010110110101111011010111110",    -- "-296"
  "00000010110110101111011010110110",    -- "-295"
  "00000010110110101111011010001000",    -- "-294"
  "00000010110110101111011011110010",    -- "-293"
  "00000010110110101111011011011010",    -- "-292"
  "00000010110110101111011001100000",    -- "-291"
  "00000010110110101111011011111100",    -- "-290"
  "00000010110110101111111011110110",    -- "-289"
  "00000010110110101111111011111110",    -- "-288"
  "00000010110110101111111011100000",    -- "-287"
  "00000010110110101111111010111110",    -- "-286"
  "00000010110110101111111010110110",    -- "-285"
  "00000010110110101111111010001000",    -- "-284"
  "00000010110110101111111011110010",    -- "-283"
  "00000010110110101111111011011010",    -- "-282"
  "00000010110110101111111001100000",    -- "-281"
  "00000010110110101111111011111100",    -- "-280"
  "00000010110110101110000011110110",    -- "-279"
  "00000010110110101110000011111110",    -- "-278"
  "00000010110110101110000011100000",    -- "-277"
  "00000010110110101110000010111110",    -- "-276"
  "00000010110110101110000010110110",    -- "-275"
  "00000010110110101110000010001000",    -- "-274"
  "00000010110110101110000011110010",    -- "-273"
  "00000010110110101110000011011010",    -- "-272"
  "00000010110110101110000001100000",    -- "-271"
  "00000010110110101110000011111100",    -- "-270"
  "00000010110110101011111011110110",    -- "-269"
  "00000010110110101011111011111110",    -- "-268"
  "00000010110110101011111011100000",    -- "-267"
  "00000010110110101011111010111110",    -- "-266"
  "00000010110110101011111010110110",    -- "-265"
  "00000010110110101011111010001000",    -- "-264"
  "00000010110110101011111011110010",    -- "-263"
  "00000010110110101011111011011010",    -- "-262"
  "00000010110110101011111001100000",    -- "-261"
  "00000010110110101011111011111100",    -- "-260"
  "00000010110110101011011011110110",    -- "-259"
  "00000010110110101011011011111110",    -- "-258"
  "00000010110110101011011011100000",    -- "-257"
  "00000010110110101011011010111110",    -- "-256"
  "00000010110110101011011010110110",    -- "-255"
  "00000010110110101011011010001000",    -- "-254"
  "00000010110110101011011011110010",    -- "-253"
  "00000010110110101011011011011010",    -- "-252"
  "00000010110110101011011001100000",    -- "-251"
  "00000010110110101011011011111100",    -- "-250"
  "00000010110110101000100011110110",    -- "-249"
  "00000010110110101000100011111110",    -- "-248"
  "00000010110110101000100011100000",    -- "-247"
  "00000010110110101000100010111110",    -- "-246"
  "00000010110110101000100010110110",    -- "-245"
  "00000010110110101000100010001000",    -- "-244"
  "00000010110110101000100011110010",    -- "-243"
  "00000010110110101000100011011010",    -- "-242"
  "00000010110110101000100001100000",    -- "-241"
  "00000010110110101000100011111100",    -- "-240"
  "00000010110110101111001011110110",    -- "-239"
  "00000010110110101111001011111110",    -- "-238"
  "00000010110110101111001011100000",    -- "-237"
  "00000010110110101111001010111110",    -- "-236"
  "00000010110110101111001010110110",    -- "-235"
  "00000010110110101111001010001000",    -- "-234"
  "00000010110110101111001011110010",    -- "-233"
  "00000010110110101111001011011010",    -- "-232"
  "00000010110110101111001001100000",    -- "-231"
  "00000010110110101111001011111100",    -- "-230"
  "00000010110110101101101011110110",    -- "-229"
  "00000010110110101101101011111110",    -- "-228"
  "00000010110110101101101011100000",    -- "-227"
  "00000010110110101101101010111110",    -- "-226"
  "00000010110110101101101010110110",    -- "-225"
  "00000010110110101101101010001000",    -- "-224"
  "00000010110110101101101011110010",    -- "-223"
  "00000010110110101101101011011010",    -- "-222"
  "00000010110110101101101001100000",    -- "-221"
  "00000010110110101101101011111100",    -- "-220"
  "00000010110110100110000011110110",    -- "-219"
  "00000010110110100110000011111110",    -- "-218"
  "00000010110110100110000011100000",    -- "-217"
  "00000010110110100110000010111110",    -- "-216"
  "00000010110110100110000010110110",    -- "-215"
  "00000010110110100110000010001000",    -- "-214"
  "00000010110110100110000011110010",    -- "-213"
  "00000010110110100110000011011010",    -- "-212"
  "00000010110110100110000001100000",    -- "-211"
  "00000010110110100110000011111100",    -- "-210"
  "00000010110110101111110011110110",    -- "-209"
  "00000010110110101111110011111110",    -- "-208"
  "00000010110110101111110011100000",    -- "-207"
  "00000010110110101111110010111110",    -- "-206"
  "00000010110110101111110010110110",    -- "-205"
  "00000010110110101111110010001000",    -- "-204"
  "00000010110110101111110011110010",    -- "-203"
  "00000010110110101111110011011010",    -- "-202"
  "00000010110110101111110001100000",    -- "-201"
  "00000010110110101111110011111100",    -- "-200"
  "00000010011000001111011011110110",    -- "-199"
  "00000010011000001111011011111110",    -- "-198"
  "00000010011000001111011011100000",    -- "-197"
  "00000010011000001111011010111110",    -- "-196"
  "00000010011000001111011010110110",    -- "-195"
  "00000010011000001111011010001000",    -- "-194"
  "00000010011000001111011011110010",    -- "-193"
  "00000010011000001111011011011010",    -- "-192"
  "00000010011000001111011001100000",    -- "-191"
  "00000010011000001111011011111100",    -- "-190"
  "00000010011000001111111011110110",    -- "-189"
  "00000010011000001111111011111110",    -- "-188"
  "00000010011000001111111011100000",    -- "-187"
  "00000010011000001111111010111110",    -- "-186"
  "00000010011000001111111010110110",    -- "-185"
  "00000010011000001111111010001000",    -- "-184"
  "00000010011000001111111011110010",    -- "-183"
  "00000010011000001111111011011010",    -- "-182"
  "00000010011000001111111001100000",    -- "-181"
  "00000010011000001111111011111100",    -- "-180"
  "00000010011000001110000011110110",    -- "-179"
  "00000010011000001110000011111110",    -- "-178"
  "00000010011000001110000011100000",    -- "-177"
  "00000010011000001110000010111110",    -- "-176"
  "00000010011000001110000010110110",    -- "-175"
  "00000010011000001110000010001000",    -- "-174"
  "00000010011000001110000011110010",    -- "-173"
  "00000010011000001110000011011010",    -- "-172"
  "00000010011000001110000001100000",    -- "-171"
  "00000010011000001110000011111100",    -- "-170"
  "00000010011000001011111011110110",    -- "-169"
  "00000010011000001011111011111110",    -- "-168"
  "00000010011000001011111011100000",    -- "-167"
  "00000010011000001011111010111110",    -- "-166"
  "00000010011000001011111010110110",    -- "-165"
  "00000010011000001011111010001000",    -- "-164"
  "00000010011000001011111011110010",    -- "-163"
  "00000010011000001011111011011010",    -- "-162"
  "00000010011000001011111001100000",    -- "-161"
  "00000010011000001011111011111100",    -- "-160"
  "00000010011000001011011011110110",    -- "-159"
  "00000010011000001011011011111110",    -- "-158"
  "00000010011000001011011011100000",    -- "-157"
  "00000010011000001011011010111110",    -- "-156"
  "00000010011000001011011010110110",    -- "-155"
  "00000010011000001011011010001000",    -- "-154"
  "00000010011000001011011011110010",    -- "-153"
  "00000010011000001011011011011010",    -- "-152"
  "00000010011000001011011001100000",    -- "-151"
  "00000010011000001011011011111100",    -- "-150"
  "00000010011000001000100011110110",    -- "-149"
  "00000010011000001000100011111110",    -- "-148"
  "00000010011000001000100011100000",    -- "-147"
  "00000010011000001000100010111110",    -- "-146"
  "00000010011000001000100010110110",    -- "-145"
  "00000010011000001000100010001000",    -- "-144"
  "00000010011000001000100011110010",    -- "-143"
  "00000010011000001000100011011010",    -- "-142"
  "00000010011000001000100001100000",    -- "-141"
  "00000010011000001000100011111100",    -- "-140"
  "00000010011000001111001011110110",    -- "-139"
  "00000010011000001111001011111110",    -- "-138"
  "00000010011000001111001011100000",    -- "-137"
  "00000010011000001111001010111110",    -- "-136"
  "00000010011000001111001010110110",    -- "-135"
  "00000010011000001111001010001000",    -- "-134"
  "00000010011000001111001011110010",    -- "-133"
  "00000010011000001111001011011010",    -- "-132"
  "00000010011000001111001001100000",    -- "-131"
  "00000010011000001111001011111100",    -- "-130"
  "00000010011000001101101011110110",    -- "-129"
  "00000010011000001101101011111110",    -- "-128"
  "00000010011000001101101011100000",    -- "-127"
  "00000010011000001101101010111110",    -- "-126"
  "00000010011000001101101010110110",    -- "-125"
  "00000010011000001101101010001000",    -- "-124"
  "00000010011000001101101011110010",    -- "-123"
  "00000010011000001101101011011010",    -- "-122"
  "00000010011000001101101001100000",    -- "-121"
  "00000010011000001101101011111100",    -- "-120"
  "00000010011000000110000011110110",    -- "-119"
  "00000010011000000110000011111110",    -- "-118"
  "00000010011000000110000011100000",    -- "-117"
  "00000010011000000110000010111110",    -- "-116"
  "00000010011000000110000010110110",    -- "-115"
  "00000010011000000110000010001000",    -- "-114"
  "00000010011000000110000011110010",    -- "-113"
  "00000010011000000110000011011010",    -- "-112"
  "00000010011000000110000001100000",    -- "-111"
  "00000010011000000110000011111100",    -- "-110"
  "00000010011000001111110011110110",    -- "-109"
  "00000010011000001111110011111110",    -- "-108"
  "00000010011000001111110011100000",    -- "-107"
  "00000010011000001111110010111110",    -- "-106"
  "00000010011000001111110010110110",    -- "-105"
  "00000010011000001111110010001000",    -- "-104"
  "00000010011000001111110011110010",    -- "-103"
  "00000010011000001111110011011010",    -- "-102"
  "00000010011000001111110001100000",    -- "-101"
  "00000010011000001111110011111100",    -- "-100"
  "00000000000000101111011011110110",    -- " -99"
  "00000000000000101111011011111110",    -- " -98"
  "00000000000000101111011011100000",    -- " -97"
  "00000000000000101111011010111110",    -- " -96"
  "00000000000000101111011010110110",    -- " -95"
  "00000000000000101111011010001000",    -- " -94"
  "00000000000000101111011011110010",    -- " -93"
  "00000000000000101111011011011010",    -- " -92"
  "00000000000000101111011001100000",    -- " -91"
  "00000000000000101111011011111100",    -- " -90"
  "00000000000000101111111011110110",    -- " -89"
  "00000000000000101111111011111110",    -- " -88"
  "00000000000000101111111011100000",    -- " -87"
  "00000000000000101111111010111110",    -- " -86"
  "00000000000000101111111010110110",    -- " -85"
  "00000000000000101111111010001000",    -- " -84"
  "00000000000000101111111011110010",    -- " -83"
  "00000000000000101111111011011010",    -- " -82"
  "00000000000000101111111001100000",    -- " -81"
  "00000000000000101111111011111100",    -- " -80"
  "00000000000000101110000011110110",    -- " -79"
  "00000000000000101110000011111110",    -- " -78"
  "00000000000000101110000011100000",    -- " -77"
  "00000000000000101110000010111110",    -- " -76"
  "00000000000000101110000010110110",    -- " -75"
  "00000000000000101110000010001000",    -- " -74"
  "00000000000000101110000011110010",    -- " -73"
  "00000000000000101110000011011010",    -- " -72"
  "00000000000000101110000001100000",    -- " -71"
  "00000000000000101110000011111100",    -- " -70"
  "00000000000000101011111011110110",    -- " -69"
  "00000000000000101011111011111110",    -- " -68"
  "00000000000000101011111011100000",    -- " -67"
  "00000000000000101011111010111110",    -- " -66"
  "00000000000000101011111010110110",    -- " -65"
  "00000000000000101011111010001000",    -- " -64"
  "00000000000000101011111011110010",    -- " -63"
  "00000000000000101011111011011010",    -- " -62"
  "00000000000000101011111001100000",    -- " -61"
  "00000000000000101011111011111100",    -- " -60"
  "00000000000000101011011011110110",    -- " -59"
  "00000000000000101011011011111110",    -- " -58"
  "00000000000000101011011011100000",    -- " -57"
  "00000000000000101011011010111110",    -- " -56"
  "00000000000000101011011010110110",    -- " -55"
  "00000000000000101011011010001000",    -- " -54"
  "00000000000000101011011011110010",    -- " -53"
  "00000000000000101011011011011010",    -- " -52"
  "00000000000000101011011001100000",    -- " -51"
  "00000000000000101011011011111100",    -- " -50"
  "00000000000000101000100011110110",    -- " -49"
  "00000000000000101000100011111110",    -- " -48"
  "00000000000000101000100011100000",    -- " -47"
  "00000000000000101000100010111110",    -- " -46"
  "00000000000000101000100010110110",    -- " -45"
  "00000000000000101000100010001000",    -- " -44"
  "00000000000000101000100011110010",    -- " -43"
  "00000000000000101000100011011010",    -- " -42"
  "00000000000000101000100001100000",    -- " -41"
  "00000000000000101000100011111100",    -- " -40"
  "00000000000000101111001011110110",    -- " -39"
  "00000000000000101111001011111110",    -- " -38"
  "00000000000000101111001011100000",    -- " -37"
  "00000000000000101111001010111110",    -- " -36"
  "00000000000000101111001010110110",    -- " -35"
  "00000000000000101111001010001000",    -- " -34"
  "00000000000000101111001011110010",    -- " -33"
  "00000000000000101111001011011010",    -- " -32"
  "00000000000000101111001001100000",    -- " -31"
  "00000000000000101111001011111100",    -- " -30"
  "00000000000000101101101011110110",    -- " -29"
  "00000000000000101101101011111110",    -- " -28"
  "00000000000000101101101011100000",    -- " -27"
  "00000000000000101101101010111110",    -- " -26"
  "00000000000000101101101010110110",    -- " -25"
  "00000000000000101101101010001000",    -- " -24"
  "00000000000000101101101011110010",    -- " -23"
  "00000000000000101101101011011010",    -- " -22"
  "00000000000000101101101001100000",    -- " -21"
  "00000000000000101101101011111100",    -- " -20"
  "00000000000000100110000011110110",    -- " -19"
  "00000000000000100110000011111110",    -- " -18"
  "00000000000000100110000011100000",    -- " -17"
  "00000000000000100110000010111110",    -- " -16"
  "00000000000000100110000010110110",    -- " -15"
  "00000000000000100110000010001000",    -- " -14"
  "00000000000000100110000011110010",    -- " -13"
  "00000000000000100110000011011010",    -- " -12"
  "00000000000000100110000001100000",    -- " -11"
  "00000000000000100110000011111100",    -- " -10"
  "00000000000000000000001011110110",    -- "  -9"
  "00000000000000000000001011111110",    -- "  -8"
  "00000000000000000000001011100000",    -- "  -7"
  "00000000000000000000001010111110",    -- "  -6"
  "00000000000000000000001010110110",    -- "  -5"
  "00000000000000000000001010001000",    -- "  -4"
  "00000000000000000000001011110010",    -- "  -3"
  "00000000000000000000001011011010",    -- "  -2"
  "00000000000000000000001001100000",    -- "  -1"
  "00000000000000000000000011111100",    -- "   0"
  "00000000000000000000000001100000",    -- "   1"
  "00000000000000000000000011011010",    -- "   2"
  "00000000000000000000000011110010",    -- "   3"
  "00000000000000000000000010001000",    -- "   4"
  "00000000000000000000000010110110",    -- "   5"
  "00000000000000000000000010111110",    -- "   6"
  "00000000000000000000000011100000",    -- "   7"
  "00000000000000000000000011111110",    -- "   8"
  "00000000000000000000000011110110",    -- "   9"
  "00000000000000000110000011111100",    -- "  10"
  "00000000000000000110000001100000",    -- "  11"
  "00000000000000000110000011011010",    -- "  12"
  "00000000000000000110000011110010",    -- "  13"
  "00000000000000000110000010001000",    -- "  14"
  "00000000000000000110000010110110",    -- "  15"
  "00000000000000000110000010111110",    -- "  16"
  "00000000000000000110000011100000",    -- "  17"
  "00000000000000000110000011111110",    -- "  18"
  "00000000000000000110000011110110",    -- "  19"
  "00000000000000001101101011111100",    -- "  20"
  "00000000000000001101101001100000",    -- "  21"
  "00000000000000001101101011011010",    -- "  22"
  "00000000000000001101101011110010",    -- "  23"
  "00000000000000001101101010001000",    -- "  24"
  "00000000000000001101101010110110",    -- "  25"
  "00000000000000001101101010111110",    -- "  26"
  "00000000000000001101101011100000",    -- "  27"
  "00000000000000001101101011111110",    -- "  28"
  "00000000000000001101101011110110",    -- "  29"
  "00000000000000001111001011111100",    -- "  30"
  "00000000000000001111001001100000",    -- "  31"
  "00000000000000001111001011011010",    -- "  32"
  "00000000000000001111001011110010",    -- "  33"
  "00000000000000001111001010001000",    -- "  34"
  "00000000000000001111001010110110",    -- "  35"
  "00000000000000001111001010111110",    -- "  36"
  "00000000000000001111001011100000",    -- "  37"
  "00000000000000001111001011111110",    -- "  38"
  "00000000000000001111001011110110",    -- "  39"
  "00000000000000001000100011111100",    -- "  40"
  "00000000000000001000100001100000",    -- "  41"
  "00000000000000001000100011011010",    -- "  42"
  "00000000000000001000100011110010",    -- "  43"
  "00000000000000001000100010001000",    -- "  44"
  "00000000000000001000100010110110",    -- "  45"
  "00000000000000001000100010111110",    -- "  46"
  "00000000000000001000100011100000",    -- "  47"
  "00000000000000001000100011111110",    -- "  48"
  "00000000000000001000100011110110",    -- "  49"
  "00000000000000001011011011111100",    -- "  50"
  "00000000000000001011011001100000",    -- "  51"
  "00000000000000001011011011011010",    -- "  52"
  "00000000000000001011011011110010",    -- "  53"
  "00000000000000001011011010001000",    -- "  54"
  "00000000000000001011011010110110",    -- "  55"
  "00000000000000001011011010111110",    -- "  56"
  "00000000000000001011011011100000",    -- "  57"
  "00000000000000001011011011111110",    -- "  58"
  "00000000000000001011011011110110",    -- "  59"
  "00000000000000001011111011111100",    -- "  60"
  "00000000000000001011111001100000",    -- "  61"
  "00000000000000001011111011011010",    -- "  62"
  "00000000000000001011111011110010",    -- "  63"
  "00000000000000001011111010001000",    -- "  64"
  "00000000000000001011111010110110",    -- "  65"
  "00000000000000001011111010111110",    -- "  66"
  "00000000000000001011111011100000",    -- "  67"
  "00000000000000001011111011111110",    -- "  68"
  "00000000000000001011111011110110",    -- "  69"
  "00000000000000001110000011111100",    -- "  70"
  "00000000000000001110000001100000",    -- "  71"
  "00000000000000001110000011011010",    -- "  72"
  "00000000000000001110000011110010",    -- "  73"
  "00000000000000001110000010001000",    -- "  74"
  "00000000000000001110000010110110",    -- "  75"
  "00000000000000001110000010111110",    -- "  76"
  "00000000000000001110000011100000",    -- "  77"
  "00000000000000001110000011111110",    -- "  78"
  "00000000000000001110000011110110",    -- "  79"
  "00000000000000001111111011111100",    -- "  80"
  "00000000000000001111111001100000",    -- "  81"
  "00000000000000001111111011011010",    -- "  82"
  "00000000000000001111111011110010",    -- "  83"
  "00000000000000001111111010001000",    -- "  84"
  "00000000000000001111111010110110",    -- "  85"
  "00000000000000001111111010111110",    -- "  86"
  "00000000000000001111111011100000",    -- "  87"
  "00000000000000001111111011111110",    -- "  88"
  "00000000000000001111111011110110",    -- "  89"
  "00000000000000001111011011111100",    -- "  90"
  "00000000000000001111011001100000",    -- "  91"
  "00000000000000001111011011011010",    -- "  92"
  "00000000000000001111011011110010",    -- "  93"
  "00000000000000001111011010001000",    -- "  94"
  "00000000000000001111011010110110",    -- "  95"
  "00000000000000001111011010111110",    -- "  96"
  "00000000000000001111011011100000",    -- "  97"
  "00000000000000001111011011111110",    -- "  98"
  "00000000000000001111011011110110",    -- "  99"
  "00000000011000001111110011111100",    -- " 100"
  "00000000011000001111110001100000",    -- " 101"
  "00000000011000001111110011011010",    -- " 102"
  "00000000011000001111110011110010",    -- " 103"
  "00000000011000001111110010001000",    -- " 104"
  "00000000011000001111110010110110",    -- " 105"
  "00000000011000001111110010111110",    -- " 106"
  "00000000011000001111110011100000",    -- " 107"
  "00000000011000001111110011111110",    -- " 108"
  "00000000011000001111110011110110",    -- " 109"
  "00000000011000000110000011111100",    -- " 110"
  "00000000011000000110000001100000",    -- " 111"
  "00000000011000000110000011011010",    -- " 112"
  "00000000011000000110000011110010",    -- " 113"
  "00000000011000000110000010001000",    -- " 114"
  "00000000011000000110000010110110",    -- " 115"
  "00000000011000000110000010111110",    -- " 116"
  "00000000011000000110000011100000",    -- " 117"
  "00000000011000000110000011111110",    -- " 118"
  "00000000011000000110000011110110",    -- " 119"
  "00000000011000001101101011111100",    -- " 120"
  "00000000011000001101101001100000",    -- " 121"
  "00000000011000001101101011011010",    -- " 122"
  "00000000011000001101101011110010",    -- " 123"
  "00000000011000001101101010001000",    -- " 124"
  "00000000011000001101101010110110",    -- " 125"
  "00000000011000001101101010111110",    -- " 126"
  "00000000011000001101101011100000",    -- " 127"
  "00000000011000001101101011111110",    -- " 128"
  "00000000011000001101101011110110",    -- " 129"
  "00000000011000001111001011111100",    -- " 130"
  "00000000011000001111001001100000",    -- " 131"
  "00000000011000001111001011011010",    -- " 132"
  "00000000011000001111001011110010",    -- " 133"
  "00000000011000001111001010001000",    -- " 134"
  "00000000011000001111001010110110",    -- " 135"
  "00000000011000001111001010111110",    -- " 136"
  "00000000011000001111001011100000",    -- " 137"
  "00000000011000001111001011111110",    -- " 138"
  "00000000011000001111001011110110",    -- " 139"
  "00000000011000001000100011111100",    -- " 140"
  "00000000011000001000100001100000",    -- " 141"
  "00000000011000001000100011011010",    -- " 142"
  "00000000011000001000100011110010",    -- " 143"
  "00000000011000001000100010001000",    -- " 144"
  "00000000011000001000100010110110",    -- " 145"
  "00000000011000001000100010111110",    -- " 146"
  "00000000011000001000100011100000",    -- " 147"
  "00000000011000001000100011111110",    -- " 148"
  "00000000011000001000100011110110",    -- " 149"
  "00000000011000001011011011111100",    -- " 150"
  "00000000011000001011011001100000",    -- " 151"
  "00000000011000001011011011011010",    -- " 152"
  "00000000011000001011011011110010",    -- " 153"
  "00000000011000001011011010001000",    -- " 154"
  "00000000011000001011011010110110",    -- " 155"
  "00000000011000001011011010111110",    -- " 156"
  "00000000011000001011011011100000",    -- " 157"
  "00000000011000001011011011111110",    -- " 158"
  "00000000011000001011011011110110",    -- " 159"
  "00000000011000001011111011111100",    -- " 160"
  "00000000011000001011111001100000",    -- " 161"
  "00000000011000001011111011011010",    -- " 162"
  "00000000011000001011111011110010",    -- " 163"
  "00000000011000001011111010001000",    -- " 164"
  "00000000011000001011111010110110",    -- " 165"
  "00000000011000001011111010111110",    -- " 166"
  "00000000011000001011111011100000",    -- " 167"
  "00000000011000001011111011111110",    -- " 168"
  "00000000011000001011111011110110",    -- " 169"
  "00000000011000001110000011111100",    -- " 170"
  "00000000011000001110000001100000",    -- " 171"
  "00000000011000001110000011011010",    -- " 172"
  "00000000011000001110000011110010",    -- " 173"
  "00000000011000001110000010001000",    -- " 174"
  "00000000011000001110000010110110",    -- " 175"
  "00000000011000001110000010111110",    -- " 176"
  "00000000011000001110000011100000",    -- " 177"
  "00000000011000001110000011111110",    -- " 178"
  "00000000011000001110000011110110",    -- " 179"
  "00000000011000001111111011111100",    -- " 180"
  "00000000011000001111111001100000",    -- " 181"
  "00000000011000001111111011011010",    -- " 182"
  "00000000011000001111111011110010",    -- " 183"
  "00000000011000001111111010001000",    -- " 184"
  "00000000011000001111111010110110",    -- " 185"
  "00000000011000001111111010111110",    -- " 186"
  "00000000011000001111111011100000",    -- " 187"
  "00000000011000001111111011111110",    -- " 188"
  "00000000011000001111111011110110",    -- " 189"
  "00000000011000001111011011111100",    -- " 190"
  "00000000011000001111011001100000",    -- " 191"
  "00000000011000001111011011011010",    -- " 192"
  "00000000011000001111011011110010",    -- " 193"
  "00000000011000001111011010001000",    -- " 194"
  "00000000011000001111011010110110",    -- " 195"
  "00000000011000001111011010111110",    -- " 196"
  "00000000011000001111011011100000",    -- " 197"
  "00000000011000001111011011111110",    -- " 198"
  "00000000011000001111011011110110",    -- " 199"
  "00000000110110101111110011111100",    -- " 200"
  "00000000110110101111110001100000",    -- " 201"
  "00000000110110101111110011011010",    -- " 202"
  "00000000110110101111110011110010",    -- " 203"
  "00000000110110101111110010001000",    -- " 204"
  "00000000110110101111110010110110",    -- " 205"
  "00000000110110101111110010111110",    -- " 206"
  "00000000110110101111110011100000",    -- " 207"
  "00000000110110101111110011111110",    -- " 208"
  "00000000110110101111110011110110",    -- " 209"
  "00000000110110100110000011111100",    -- " 210"
  "00000000110110100110000001100000",    -- " 211"
  "00000000110110100110000011011010",    -- " 212"
  "00000000110110100110000011110010",    -- " 213"
  "00000000110110100110000010001000",    -- " 214"
  "00000000110110100110000010110110",    -- " 215"
  "00000000110110100110000010111110",    -- " 216"
  "00000000110110100110000011100000",    -- " 217"
  "00000000110110100110000011111110",    -- " 218"
  "00000000110110100110000011110110",    -- " 219"
  "00000000110110101101101011111100",    -- " 220"
  "00000000110110101101101001100000",    -- " 221"
  "00000000110110101101101011011010",    -- " 222"
  "00000000110110101101101011110010",    -- " 223"
  "00000000110110101101101010001000",    -- " 224"
  "00000000110110101101101010110110",    -- " 225"
  "00000000110110101101101010111110",    -- " 226"
  "00000000110110101101101011100000",    -- " 227"
  "00000000110110101101101011111110",    -- " 228"
  "00000000110110101101101011110110",    -- " 229"
  "00000000110110101111001011111100",    -- " 230"
  "00000000110110101111001001100000",    -- " 231"
  "00000000110110101111001011011010",    -- " 232"
  "00000000110110101111001011110010",    -- " 233"
  "00000000110110101111001010001000",    -- " 234"
  "00000000110110101111001010110110",    -- " 235"
  "00000000110110101111001010111110",    -- " 236"
  "00000000110110101111001011100000",    -- " 237"
  "00000000110110101111001011111110",    -- " 238"
  "00000000110110101111001011110110",    -- " 239"
  "00000000110110101000100011111100",    -- " 240"
  "00000000110110101000100001100000",    -- " 241"
  "00000000110110101000100011011010",    -- " 242"
  "00000000110110101000100011110010",    -- " 243"
  "00000000110110101000100010001000",    -- " 244"
  "00000000110110101000100010110110",    -- " 245"
  "00000000110110101000100010111110",    -- " 246"
  "00000000110110101000100011100000",    -- " 247"
  "00000000110110101000100011111110",    -- " 248"
  "00000000110110101000100011110110",    -- " 249"
  "00000000110110101011011011111100",    -- " 250"
  "00000000110110101011011001100000",    -- " 251"
  "00000000110110101011011011011010",    -- " 252"
  "00000000110110101011011011110010",    -- " 253"
  "00000000110110101011011010001000",    -- " 254"
  "00000000110110101011011010110110",    -- " 255"
  "00000000110110101011011010111110",    -- " 256"
  "00000000110110101011011011100000",    -- " 257"
  "00000000110110101011011011111110",    -- " 258"
  "00000000110110101011011011110110",    -- " 259"
  "00000000110110101011111011111100",    -- " 260"
  "00000000110110101011111001100000",    -- " 261"
  "00000000110110101011111011011010",    -- " 262"
  "00000000110110101011111011110010",    -- " 263"
  "00000000110110101011111010001000",    -- " 264"
  "00000000110110101011111010110110",    -- " 265"
  "00000000110110101011111010111110",    -- " 266"
  "00000000110110101011111011100000",    -- " 267"
  "00000000110110101011111011111110",    -- " 268"
  "00000000110110101011111011110110",    -- " 269"
  "00000000110110101110000011111100",    -- " 270"
  "00000000110110101110000001100000",    -- " 271"
  "00000000110110101110000011011010",    -- " 272"
  "00000000110110101110000011110010",    -- " 273"
  "00000000110110101110000010001000",    -- " 274"
  "00000000110110101110000010110110",    -- " 275"
  "00000000110110101110000010111110",    -- " 276"
  "00000000110110101110000011100000",    -- " 277"
  "00000000110110101110000011111110",    -- " 278"
  "00000000110110101110000011110110",    -- " 279"
  "00000000110110101111111011111100",    -- " 280"
  "00000000110110101111111001100000",    -- " 281"
  "00000000110110101111111011011010",    -- " 282"
  "00000000110110101111111011110010",    -- " 283"
  "00000000110110101111111010001000",    -- " 284"
  "00000000110110101111111010110110",    -- " 285"
  "00000000110110101111111010111110",    -- " 286"
  "00000000110110101111111011100000",    -- " 287"
  "00000000110110101111111011111110",    -- " 288"
  "00000000110110101111111011110110",    -- " 289"
  "00000000110110101111011011111100",    -- " 290"
  "00000000110110101111011001100000",    -- " 291"
  "00000000110110101111011011011010",    -- " 292"
  "00000000110110101111011011110010",    -- " 293"
  "00000000110110101111011010001000",    -- " 294"
  "00000000110110101111011010110110",    -- " 295"
  "00000000110110101111011010111110",    -- " 296"
  "00000000110110101111011011100000",    -- " 297"
  "00000000110110101111011011111110",    -- " 298"
  "00000000110110101111011011110110",    -- " 299"
  "00000000111100101111110011111100",    -- " 300"
  "00000000111100101111110001100000",    -- " 301"
  "00000000111100101111110011011010",    -- " 302"
  "00000000111100101111110011110010",    -- " 303"
  "00000000111100101111110010001000",    -- " 304"
  "00000000111100101111110010110110",    -- " 305"
  "00000000111100101111110010111110",    -- " 306"
  "00000000111100101111110011100000",    -- " 307"
  "00000000111100101111110011111110",    -- " 308"
  "00000000111100101111110011110110",    -- " 309"
  "00000000111100100110000011111100",    -- " 310"
  "00000000111100100110000001100000",    -- " 311"
  "00000000111100100110000011011010",    -- " 312"
  "00000000111100100110000011110010",    -- " 313"
  "00000000111100100110000010001000",    -- " 314"
  "00000000111100100110000010110110",    -- " 315"
  "00000000111100100110000010111110",    -- " 316"
  "00000000111100100110000011100000",    -- " 317"
  "00000000111100100110000011111110",    -- " 318"
  "00000000111100100110000011110110",    -- " 319"
  "00000000111100101101101011111100",    -- " 320"
  "00000000111100101101101001100000",    -- " 321"
  "00000000111100101101101011011010",    -- " 322"
  "00000000111100101101101011110010",    -- " 323"
  "00000000111100101101101010001000",    -- " 324"
  "00000000111100101101101010110110",    -- " 325"
  "00000000111100101101101010111110",    -- " 326"
  "00000000111100101101101011100000",    -- " 327"
  "00000000111100101101101011111110",    -- " 328"
  "00000000111100101101101011110110",    -- " 329"
  "00000000111100101111001011111100",    -- " 330"
  "00000000111100101111001001100000",    -- " 331"
  "00000000111100101111001011011010",    -- " 332"
  "00000000111100101111001011110010",    -- " 333"
  "00000000111100101111001010001000",    -- " 334"
  "00000000111100101111001010110110",    -- " 335"
  "00000000111100101111001010111110",    -- " 336"
  "00000000111100101111001011100000",    -- " 337"
  "00000000111100101111001011111110",    -- " 338"
  "00000000111100101111001011110110",    -- " 339"
  "00000000111100101000100011111100",    -- " 340"
  "00000000111100101000100001100000",    -- " 341"
  "00000000111100101000100011011010",    -- " 342"
  "00000000111100101000100011110010",    -- " 343"
  "00000000111100101000100010001000",    -- " 344"
  "00000000111100101000100010110110",    -- " 345"
  "00000000111100101000100010111110",    -- " 346"
  "00000000111100101000100011100000",    -- " 347"
  "00000000111100101000100011111110",    -- " 348"
  "00000000111100101000100011110110",    -- " 349"
  "00000000111100101011011011111100",    -- " 350"
  "00000000111100101011011001100000",    -- " 351"
  "00000000111100101011011011011010",    -- " 352"
  "00000000111100101011011011110010",    -- " 353"
  "00000000111100101011011010001000",    -- " 354"
  "00000000111100101011011010110110",    -- " 355"
  "00000000111100101011011010111110",    -- " 356"
  "00000000111100101011011011100000",    -- " 357"
  "00000000111100101011011011111110",    -- " 358"
  "00000000111100101011011011110110",    -- " 359"
  "00000000111100101011111011111100",    -- " 360"
  "00000000111100101011111001100000",    -- " 361"
  "00000000111100101011111011011010",    -- " 362"
  "00000000111100101011111011110010",    -- " 363"
  "00000000111100101011111010001000",    -- " 364"
  "00000000111100101011111010110110",    -- " 365"
  "00000000111100101011111010111110",    -- " 366"
  "00000000111100101011111011100000",    -- " 367"
  "00000000111100101011111011111110",    -- " 368"
  "00000000111100101011111011110110",    -- " 369"
  "00000000111100101110000011111100",    -- " 370"
  "00000000111100101110000001100000",    -- " 371"
  "00000000111100101110000011011010",    -- " 372"
  "00000000111100101110000011110010",    -- " 373"
  "00000000111100101110000010001000",    -- " 374"
  "00000000111100101110000010110110",    -- " 375"
  "00000000111100101110000010111110",    -- " 376"
  "00000000111100101110000011100000",    -- " 377"
  "00000000111100101110000011111110",    -- " 378"
  "00000000111100101110000011110110",    -- " 379"
  "00000000111100101111111011111100",    -- " 380"
  "00000000111100101111111001100000",    -- " 381"
  "00000000111100101111111011011010",    -- " 382"
  "00000000111100101111111011110010",    -- " 383"
  "00000000111100101111111010001000",    -- " 384"
  "00000000111100101111111010110110",    -- " 385"
  "00000000111100101111111010111110",    -- " 386"
  "00000000111100101111111011100000",    -- " 387"
  "00000000111100101111111011111110",    -- " 388"
  "00000000111100101111111011110110",    -- " 389"
  "00000000111100101111011011111100"     -- " 390"
);
